  1.0      1.00000000       0.00000000
  1.0000   8069.6  1.18239E+03  6.000E+04  1.5000E+00  -1.0000E+04  4.5000E+01  3.0000E+01 -8.7246E+01  2.3835E+05  4.6269E-07
  0.9000   7874.5  8.86668E+02  6.000E+04  1.5000E+00  -1.0000E+04  4.5000E+01  3.0000E+01 -7.9914E+01  2.2912E+05  4.5580E-07
  0.8000   7679.9  6.56781E+02  6.000E+04  1.5000E+00  -1.0000E+04  4.5000E+01  3.0000E+01 -7.2468E+01  2.1989E+05  4.4852E-07
  0.7000   7486.0  4.80382E+02  6.000E+04  1.5000E+00  -1.0000E+04  4.5000E+01  3.0000E+01 -6.4850E+01  2.1061E+05  4.4071E-07
  0.6000   7295.1  3.48033E+02  6.000E+04  1.5000E+00  -1.0000E+04  4.5000E+01  3.0000E+01 -5.6996E+01  2.0121E+05  4.3207E-07
  0.5000   7103.5  2.48226E+02  6.000E+04  1.5000E+00  -1.0000E+04  4.5000E+01  3.0000E+01 -4.8820E+01  1.9164E+05  4.2261E-07
  0.4000   6917.2  1.76025E+02  6.000E+04  1.5000E+00  -1.0000E+04  4.5000E+01  3.0000E+01 -4.0230E+01  1.8182E+05  4.1175E-07
  0.3000   6737.4  1.24519E+02  6.000E+04  1.5000E+00  -1.0000E+04  4.5000E+01  3.0000E+01 -3.1149E+01  1.7173E+05  3.9928E-07
  0.2000   6560.0  8.73652E+01  6.000E+04  1.5000E+00  -1.0000E+04  4.5000E+01  3.0000E+01 -2.1472E+01  1.6133E+05  3.8524E-07
  0.1000   6394.5  6.20039E+01  6.000E+04  1.5000E+00  -1.0000E+04  4.5000E+01  3.0000E+01 -1.1119E+01  1.5063E+05  3.6901E-07
  0.0000   6229.8  4.37468E+01  6.000E+04  1.5000E+00  -1.0000E+04  4.5000E+01  3.0000E+01  0.0000E+00  1.3967E+05  3.5119E-07
 -0.1000   6077.2  3.14490E+01  6.000E+04  1.5000E+00  -1.0000E+04  4.5000E+01  3.0000E+01  1.1958E+01  1.2849E+05  3.3121E-07
 -0.2000   5937.0  2.31354E+01  6.000E+04  1.5000E+00  -1.0000E+04  4.5000E+01  3.0000E+01  2.4720E+01  1.1730E+05  3.0949E-07
 -0.3000   5799.0  1.71667E+01  6.000E+04  1.5000E+00  -1.0000E+04  4.5000E+01  3.0000E+01  3.8259E+01  1.0624E+05  2.8698E-07
 -0.4000   5676.6  1.31724E+01  6.000E+04  1.5000E+00  -1.0000E+04  4.5000E+01  3.0000E+01  5.2481E+01  9.5515E+04  2.6358E-07
 -0.5000   5556.6  1.02463E+01  6.000E+04  1.5000E+00  -1.0000E+04  4.5000E+01  3.0000E+01  6.7230E+01  8.5331E+04  2.4056E-07
 -0.6000   5448.5  8.18426E+00  6.000E+04  1.5000E+00  -1.0000E+04  4.5000E+01  3.0000E+01  8.2349E+01  7.5831E+04  2.1802E-07
 -0.7000   5351.7  6.68161E+00  6.000E+04  1.5000E+00  -1.0000E+04  4.5000E+01  3.0000E+01  9.7650E+01  6.7138E+04  1.9652E-07
 -0.8000   5256.0  5.49882E+00  6.000E+04  1.5000E+00  -1.0000E+04  4.5000E+01  3.0000E+01  1.1299E+02  5.9288E+04  1.7670E-07
 -0.9000   5173.0  4.60180E+00  6.000E+04  1.5000E+00  -1.0000E+04  4.5000E+01  3.0000E+01  1.2828E+02  5.2267E+04  1.5828E-07
 -1.0000   5091.5  3.86704E+00  6.000E+04  1.5000E+00  -1.0000E+04  4.5000E+01  3.0000E+01  1.4344E+02  4.6033E+04  1.4163E-07
 -1.1000   5019.4  3.27981E+00  6.000E+04  1.5000E+00  -1.0000E+04  4.5000E+01  3.0000E+01  1.5844E+02  4.0520E+04  1.2646E-07
 -1.2000   4956.6  2.80391E+00  6.000E+04  1.5000E+00  -1.0000E+04  4.5000E+01  3.0000E+01  1.7327E+02  3.5658E+04  1.1269E-07
 -1.3000   4894.0  2.39722E+00  6.000E+04  1.5000E+00  -1.0000E+04  4.5000E+01  3.0000E+01  1.8793E+02  3.1375E+04  1.0043E-07
 -1.4000   4840.6  2.06402E+00  6.000E+04  1.5000E+00  -1.0000E+04  4.5000E+01  3.0000E+01  2.0242E+02  2.7605E+04  8.9333E-08
 -1.5000   4788.3  1.77781E+00  6.000E+04  1.5000E+00  -1.0000E+04  4.5000E+01  3.0000E+01  2.1676E+02  2.4286E+04  7.9453E-08
 -1.6000   4742.2  1.53834E+00  6.000E+04  1.5000E+00  -1.0000E+04  4.5000E+01  3.0000E+01  2.3095E+02  2.1366E+04  7.0579E-08
 -1.7000   4701.9  1.33705E+00  6.000E+04  1.5000E+00  -1.0000E+04  4.5000E+01  3.0000E+01  2.4502E+02  1.8796E+04  6.2621E-08
 -1.8000   4662.0  1.16192E+00  6.000E+04  1.5000E+00  -1.0000E+04  4.5000E+01  3.0000E+01  2.5899E+02  1.6534E+04  5.5556E-08
 -1.9000   4628.0  1.01455E+00  6.000E+04  1.5000E+00  -1.0000E+04  4.5000E+01  3.0000E+01  2.7285E+02  1.4543E+04  4.9224E-08
 -2.0000   4594.9  8.86217E-01  6.000E+04  1.5000E+00  -1.0000E+04  4.5000E+01  3.0000E+01  2.8662E+02  1.2790E+04  4.3602E-08
 -2.1000   4565.4  7.76353E-01  6.000E+04  1.5000E+00  -1.0000E+04  4.5000E+01  3.0000E+01  3.0032E+02  1.1246E+04  3.8589E-08
 -2.2000   4539.2  6.81930E-01  6.000E+04  1.5000E+00  -1.0000E+04  4.5000E+01  3.0000E+01  3.1395E+02  9.8878E+03  3.4123E-08
 -2.3000   4513.0  5.98763E-01  6.000E+04  1.5000E+00  -1.0000E+04  4.5000E+01  3.0000E+01  3.2752E+02  8.6916E+03  3.0169E-08
 -2.4000   4490.0  5.27104E-01  6.000E+04  1.5000E+00  -1.0000E+04  4.5000E+01  3.0000E+01  3.4104E+02  7.6383E+03  2.6649E-08
 -2.5000   4467.4  4.63999E-01  6.000E+04  1.5000E+00  -1.0000E+04  4.5000E+01  3.0000E+01  3.5453E+02  6.7108E+03  2.3531E-08
 -2.6000   4446.8  4.09027E-01  6.000E+04  1.5000E+00  -1.0000E+04  4.5000E+01  3.0000E+01  3.6798E+02  5.8939E+03  2.0763E-08
 -2.7000   4428.3  3.61087E-01  6.000E+04  1.5000E+00  -1.0000E+04  4.5000E+01  3.0000E+01  3.8142E+02  5.1743E+03  1.8304E-08
 -2.8000   4410.0  3.18627E-01  6.000E+04  1.5000E+00  -1.0000E+04  4.5000E+01  3.0000E+01  3.9485E+02  4.5402E+03  1.6128E-08
 -2.9000   4393.9  2.81529E-01  6.000E+04  1.5000E+00  -1.0000E+04  4.5000E+01  3.0000E+01  4.0830E+02  3.9814E+03  1.4194E-08
 -3.0000   4378.2  2.48623E-01  6.000E+04  1.5000E+00  -1.0000E+04  4.5000E+01  3.0000E+01  4.2178E+02  3.4885E+03  1.2482E-08
 -3.1000   4364.0  2.19628E-01  6.000E+04  1.5000E+00  -1.0000E+04  4.5000E+01  3.0000E+01  4.3532E+02  3.0536E+03  1.0961E-08
 -3.2000   4351.4  1.94034E-01  6.000E+04  1.5000E+00  -1.0000E+04  4.5000E+01  3.0000E+01  4.4894E+02  2.6696E+03  9.6103E-09
 -3.3000   4339.0  1.71166E-01  6.000E+04  1.5000E+00  -1.0000E+04  4.5000E+01  3.0000E+01  4.6269E+02  2.3300E+03  8.4120E-09
 -3.4000   4328.6  1.50938E-01  6.000E+04  1.5000E+00  -1.0000E+04  4.5000E+01  3.0000E+01  4.7662E+02  2.0295E+03  7.3445E-09
 -3.5000   4318.2  1.32741E-01  6.000E+04  1.5000E+00  -1.0000E+04  4.5000E+01  3.0000E+01  4.9078E+02  1.7629E+03  6.3953E-09
 -3.6000   4310.0  1.16545E-01  6.000E+04  1.5000E+00  -1.0000E+04  4.5000E+01  3.0000E+01  5.0527E+02  1.5260E+03  5.5464E-09
 -3.7000   4304.0  1.02027E-01  6.000E+04  1.5000E+00  -1.0000E+04  4.5000E+01  3.0000E+01  5.2021E+02  1.3147E+03  4.7850E-09
 -3.8000   4298.0  8.87582E-02  6.000E+04  1.5000E+00  -1.0000E+04  4.5000E+01  3.0000E+01  5.3577E+02  1.1254E+03  4.1018E-09
