1.00000e-07      0.00000      1.00000
1.300  9532.2  3.367e+03  2.732e+05  1.000e+01  -1.000e+03  10.000e+00  10.000e+00 -9.281e+01  1.892e+05  3.223e-07
1.300  9032.2  3.367e+03  2.732e+05  1.000e+01  -1.000e+03  10.000e+00  10.000e+00 -9.281e+01  1.892e+05  3.223e-07
1.200  8859.8  2.728e+03  2.705e+05  1.000e+01  -1.000e+03  10.000e+00  10.000e+00 -8.626e+01  1.835e+05  3.196e-07
1.100  8685.8  2.204e+03  2.676e+05  1.000e+01  -1.000e+03  10.000e+00  10.000e+00 -7.972e+01  1.780e+05  3.170e-07
1.000  8492.7  1.720e+03  2.633e+05  1.000e+01  -1.000e+03  10.000e+00  10.000e+00 -7.339e+01  1.726e+05  3.152e-07
0.900  8297.1  1.326e+03  2.595e+05  1.000e+01  -1.000e+03  10.000e+00  10.000e+00 -6.709e+01  1.673e+05  3.135e-07
0.800  8099.2  1.011e+03  2.562e+05  1.000e+01  -1.000e+03  10.000e+00  10.000e+00 -6.082e+01  1.622e+05  3.118e-07
0.700  7896.6  7.512e+02  2.493e+05  1.000e+01  -1.000e+03  10.000e+00  10.000e+00 -5.448e+01  1.568e+05  3.097e-07
0.600  7690.7  5.504e+02  2.424e+05  1.000e+01  -1.000e+03  10.000e+00  10.000e+00 -4.806e+01  1.514e+05  3.074e-07
0.500  7478.8  3.929e+02  2.372e+05  1.000e+01  -1.000e+03  10.000e+00  10.000e+00 -4.145e+01  1.459e+05  3.048e-07
0.400  7261.4  2.725e+02  2.305e+05  1.000e+01  -1.000e+03  10.000e+00  10.000e+00 -3.445e+01  1.400e+05  3.016e-07
0.300  7041.6  1.852e+02  2.226e+05  1.000e+01  -1.000e+03  10.000e+00  10.000e+00 -2.705e+01  1.339e+05  2.975e-07
0.200  6820.2  1.231e+02  2.133e+05  1.000e+01  -1.000e+03  10.000e+00  10.000e+00 -1.903e+01  1.273e+05  2.922e-07
0.100  6599.4  8.013e+01  2.049e+05  1.000e+01  -1.000e+03  10.000e+00  10.000e+00 -1.009e+01  1.203e+05  2.854e-07
0.000  6384.1  5.188e+01  1.952e+05  1.000e+01  -1.000e+03  10.000e+00  10.000e+00 -2.384e-07  1.132e+05  2.776e-07
-0.100  6193.7  3.474e+01  1.875e+05  1.000e+01  -1.000e+03  10.000e+00  10.000e+00  1.134e+01  1.053e+05  2.662e-07
-0.200  6014.5  2.368e+01  1.842e+05  1.000e+01  -1.000e+03  10.000e+00  10.000e+00  2.397e+01  9.692e+04  2.524e-07
-0.300  5831.3  1.615e+01  1.818e+05  1.000e+01  -1.000e+03  10.000e+00  10.000e+00  3.769e+01  8.897e+04  2.390e-07
-0.400  5678.2  1.172e+01  1.809e+05  1.000e+01  -1.000e+03  10.000e+00  10.000e+00  5.272e+01  8.027e+04  2.215e-07
-0.500  5551.9  9.007e+00  1.803e+05  1.000e+01  -1.000e+03  10.000e+00  10.000e+00  6.851e+01  7.180e+04  2.026e-07
-0.600  5452.7  7.198e+00  1.800e+05  1.000e+01  -1.000e+03  10.000e+00  10.000e+00  8.479e+01  6.359e+04  1.827e-07
-0.700  5372.0  5.918e+00  1.800e+05  1.000e+01  -1.000e+03  10.000e+00  10.000e+00  1.014e+02  5.595e+04  1.632e-07
-0.800  5286.8  4.905e+00  1.800e+05  1.000e+01  -1.000e+03  10.000e+00  10.000e+00  1.184e+02  4.951e+04  1.467e-07
-0.900  5207.4  4.111e+00  1.800e+05  1.000e+01  -1.000e+03  10.000e+00  10.000e+00  1.353e+02  4.383e+04  1.319e-07
-1.000  5133.8  3.477e+00  1.800e+05  1.000e+01  -1.000e+03  10.000e+00  10.000e+00  1.521e+02  3.880e+04  1.184e-07
-1.100  5075.8  2.987e+00  1.800e+05  1.000e+01  -1.000e+03  10.000e+00  10.000e+00  1.686e+02  3.428e+04  1.058e-07
-1.200  5026.3  2.582e+00  1.800e+05  1.000e+01  -1.000e+03  10.000e+00  10.000e+00  1.849e+02  3.023e+04  9.423e-08
-1.300  4982.7  2.242e+00  1.800e+05  1.000e+01  -1.000e+03  10.000e+00  10.000e+00  2.011e+02  2.664e+04  8.376e-08
-1.400  4947.5  1.965e+00  1.800e+05  1.000e+01  -1.000e+03  10.000e+00  10.000e+00  2.164e+02  2.354e+04  7.453e-08
-1.500  4912.4  1.722e+00  1.800e+05  1.000e+01  -1.000e+03  10.000e+00  10.000e+00  2.318e+02  2.079e+04  6.632e-08
-1.600  4877.2  1.510e+00  1.800e+05  1.000e+01  -1.000e+03  10.000e+00  10.000e+00  2.471e+02  1.837e+04  5.902e-08
-1.700  4849.1  1.330e+00  1.800e+05  1.000e+01  -1.000e+03  10.000e+00  10.000e+00  2.619e+02  1.623e+04  5.244e-08
-1.800  4822.7  1.173e+00  1.800e+05  1.000e+01  -1.000e+03  10.000e+00  10.000e+00  2.767e+02  1.434e+04  4.658e-08
-1.900  4796.3  1.035e+00  1.800e+05  1.000e+01  -1.000e+03  10.000e+00  10.000e+00  2.914e+02  1.267e+04  4.138e-08
-2.000  4771.3  9.145e-01  1.800e+05  1.000e+01  -1.000e+03  10.000e+00  10.000e+00  3.058e+02  1.120e+04  3.677e-08
-2.100  4748.3  8.096e-01  1.800e+05  1.000e+01  -1.000e+03  10.000e+00  10.000e+00  3.200e+02  9.910e+03  3.269e-08
-2.200  4725.3  7.167e-01  1.800e+05  1.000e+01  -1.000e+03  10.000e+00  10.000e+00  3.342e+02  8.768e+03  2.907e-08
-2.300  4701.4  6.270e-01  1.800e+05  1.000e+01  -1.000e+03  10.000e+00  10.000e+00  3.485e+02  7.658e+03  2.552e-08
-2.400  4669.5  4.893e-01  1.800e+05  1.000e+01  -1.000e+03  10.000e+00  10.000e+00  3.650e+02  5.904e+03  1.981e-08
-2.500  4638.2  4.141e-01  1.800e+05  1.000e+01  -1.000e+03  10.000e+00  10.000e+00  3.823e+02  4.995e+03  1.687e-08
-2.600  4608.1  3.979e-01  1.800e+05  1.000e+01  -1.000e+03  10.000e+00  10.000e+00  4.009e+02  4.887e+03  1.661e-08
-2.700  4585.9  3.492e-01  1.800e+05  1.000e+01  -1.000e+03  10.000e+00  10.000e+00  4.171e+02  4.283e+03  1.463e-08
-2.800  4564.6  3.034e-01  1.800e+05  1.000e+01  -1.000e+03  10.000e+00  10.000e+00  4.330e+02  3.705e+03  1.272e-08
-2.900  4534.2  2.610e-01  1.800e+05  1.000e+01  -1.000e+03  10.000e+00  10.000e+00  4.498e+02  3.194e+03  1.104e-08
-3.000  4501.2  2.239e-01  1.800e+05  1.000e+01  -1.000e+03  10.000e+00  10.000e+00  4.667e+02  2.750e+03  9.571e-09
-3.100  4474.0  1.904e-01  1.800e+05  1.000e+01  -1.000e+03  10.000e+00  10.000e+00  4.848e+02  2.336e+03  8.178e-09
-3.200  4446.9  1.619e-01  1.800e+05  1.000e+01  -1.000e+03  10.000e+00  10.000e+00  5.029e+02  1.983e+03  6.985e-09
-3.300  4417.0  1.356e-01  1.800e+05  1.000e+01  -1.000e+03  10.000e+00  10.000e+00  5.227e+02  1.659e+03  5.883e-09
-3.400  4383.5  1.115e-01  1.800e+05  1.000e+01  -1.000e+03  10.000e+00  10.000e+00  5.444e+02  1.362e+03  4.868e-09
-3.500  4349.0  9.097e-02  1.800e+05  1.000e+01  -1.000e+03  10.000e+00  10.000e+00  5.675e+02  1.111e+03  4.000e-09
-3.600  4309.3  7.169e-02  1.800e+05  1.000e+01  -1.000e+03  10.000e+00  10.000e+00  5.968e+02  8.745e+02  3.179e-09
-3.700  4269.6  5.650e-02  1.800e+05  1.000e+01  -1.000e+03  10.000e+00  10.000e+00  6.260e+02  6.886e+02  2.527e-09
-3.800  4218.0  4.699e-02  1.811e+05  1.000e+01  -1.000e+03  10.000e+00  10.000e+00  6.645e+02  5.823e+02  2.163e-09
-3.900  4165.6  3.997e-02  1.826e+05  1.000e+01  -1.000e+03  10.000e+00  10.000e+00  7.034e+02  5.059e+02  1.902e-09
-4.000  4118.1  3.733e-02  1.876e+05  1.000e+01  -1.000e+03  10.000e+00  10.000e+00  7.395e+02  4.886e+02  1.859e-09
-4.100  4089.5  3.636e-02  1.982e+05  1.000e+01  -1.000e+03  10.000e+00  10.000e+00  7.677e+02  4.880e+02  1.869e-09
-4.200  4070.2  3.595e-02  2.073e+05  1.000e+01  -1.000e+03  10.000e+00  10.000e+00  7.913e+02  4.917e+02  1.892e-09
-4.300  4092.8  3.640e-02  2.185e+05  1.000e+01  -1.000e+03  10.000e+00  10.000e+00  8.093e+02  4.869e+02  1.863e-09
-4.400  4205.7  3.786e-02  2.415e+05  1.000e+01  -1.000e+03  10.000e+00  10.000e+00  8.247e+02  4.652e+02  1.733e-09
-4.500  4353.1  3.984e-02  2.941e+05  1.000e+01  -1.000e+03  10.000e+00  10.000e+00  8.393e+02  4.401e+02  1.584e-09
-4.600  4558.0  4.285e-02  4.259e+05  1.000e+01  -1.000e+03  10.000e+00  10.000e+00  8.532e+02  4.109e+02  1.412e-09
-4.700  4853.1  4.826e-02  6.221e+05  1.000e+01  -1.000e+03  10.000e+00  10.000e+00  8.694e+02  2.495e+02  8.053e-10
-4.800  5357.5  7.431e-02  9.094e+05  1.000e+01  -1.000e+03  10.000e+00  10.000e+00  9.013e+02  4.512e+01  1.318e-10
-4.900  6011.6  1.562e-01  1.139e+06  1.000e+01  -1.000e+03  10.000e+00  10.000e+00  9.698e+02  7.444e+00  1.897e-11
-5.000  6258.7  1.828e-01  1.180e+06  1.000e+01  -1.000e+03  10.000e+00  10.000e+00  1.066e+03  3.517e+00  8.337e-12
-5.100  6348.9  1.642e-01  1.197e+06  1.000e+01  -1.000e+03  10.000e+00  10.000e+00  1.156e+03  2.054e+00  4.657e-12
-5.200  6384.9  1.368e-01  1.200e+06  1.000e+01  -1.000e+03  10.000e+00  10.000e+00  1.246e+03  1.305e+00  2.863e-12
-5.300  6464.0  1.216e-01  1.200e+06  1.000e+01  -1.000e+03  10.000e+00  10.000e+00  1.335e+03  8.315e-01  1.721e-12
-5.400  6510.8  1.054e-01  1.200e+06  1.000e+01  -1.000e+03  10.000e+00  10.000e+00  1.419e+03  5.780e-01  1.138e-12
-5.500  6538.0  9.153e-02  1.200e+06  1.000e+01  -1.000e+03  10.000e+00  10.000e+00  1.499e+03  4.333e-01  8.187e-13
-5.600  6558.4  8.135e-02  1.200e+06  1.000e+01  -1.000e+03  10.000e+00  10.000e+00  1.573e+03  3.461e-01  6.323e-13
-5.700  6577.2  7.765e-02  1.200e+06  1.000e+01  -1.000e+03  10.000e+00  10.000e+00  1.638e+03  3.110e-01  5.559e-13
-5.800  6585.6  8.052e-02  1.200e+06  1.000e+01  -1.000e+03  10.000e+00  10.000e+00  1.687e+03  3.229e-01  5.765e-13
-5.900  6594.0  8.494e-02  1.200e+06  1.000e+01  -1.000e+03  10.000e+00  10.000e+00  1.728e+03  3.438e-01  6.150e-13
-6.000  6606.0  9.025e-02  1.200e+06  1.000e+01  -1.000e+03  10.000e+00  10.000e+00  1.757e+03  3.675e-01  6.576e-13
-6.100  6652.7  9.509e-02  1.200e+06  1.000e+01  -1.000e+03  10.000e+00  10.000e+00  1.779e+03  3.659e-01  6.367e-13
-6.200  6716.4  9.977e-02  1.200e+06  1.000e+01  -1.000e+03  10.000e+00  10.000e+00  1.796e+03  3.518e-01  5.871e-13
-6.300  6879.3  1.075e-01  1.200e+06  1.000e+01  -1.000e+03  10.000e+00  10.000e+00  1.811e+03  3.190e-01  4.804e-13
-6.400  7451.7  1.208e-01  1.200e+06  1.000e+01  -1.000e+03  10.000e+00  10.000e+00  1.820e+03  2.745e-01  3.227e-13
-6.500  7940.5  1.328e-01  1.200e+06  1.000e+01  -1.000e+03  10.000e+00  10.000e+00  1.828e+03  2.839e-01  2.981e-13
-6.600  8337.2  1.457e-01  1.200e+06  1.000e+01  -1.000e+03  10.000e+00  10.000e+00  1.834e+03  3.079e-01  3.049e-13
-6.700 10670.0  1.967e-01  1.200e+06  1.000e+01  -1.000e+03  10.000e+00  10.000e+00  1.839e+03  4.078e-01  3.115e-13
-6.800 19846.7  2.567e-01  1.200e+06  1.000e+01  -1.000e+03  10.000e+00  10.000e+00  1.843e+03  5.076e-01  2.035e-13
